Week 8 Assignment 8.2.3
…
#Which specific variables have large residuals (only cases that evaluate as TRUE)?

## [1] 331

## # A tibble: 331 x 7
##    `Sale Price` square_feet_tot bath_full_count bath_half_count bath_3qtr_count
##           <dbl>            <dbl>           <dbl>           <dbl>           <dbl>
##  1       184667             4160               2               1               1
##  2       265000             4920               4               1               0
##  3      1390000              660               1               0               0
##  4       229000             3840               0               0               0
##  5       390000             5800               4               1               0
##  6      1588359             3360               2               1               0
##  7      1450000              900               1               0               0
##  8      1490000             3540               2               0               1
##  9       163000             4710               2               1               2
## 10       270000             5060              23               1               0
## #  with 321 more rows, and 2 more variables: bedrooms <dbl>, sq_ft_lot <dbl>

#Investigate further by calculating the leverage, cooks distance, and covariance rations. Comment on all cases that are problematics.

## # A tibble: 331 x 3
##    leverage cooks.distance covariance.ratios
##       <dbl>          <dbl>             <dbl>
##  1 0.000391       0.000282             0.998
##  2 0.00122        0.00122              0.998
##  3 0.00250        0.00328              0.998
##  4 0.00598        0.00346              1.00 
##  5 0.00127        0.00131              0.998
##  6 0.000766       0.000489             0.999
##  7 0.000497       0.000719             0.996
##  8 0.0192         0.0121               1.02 
##  9 0.000969       0.000926             0.998
## 10 0.163          0.720                1.18 
## #  with 321 more rows
…
